<?xml version="1.0" encoding="utf-8"?>
<!-- Generator: Adobe Illustrator 21.0.2, SVG Export Plug-In . SVG Version: 6.00 Build 0)  -->
<svg version="1.1" id="Layer_2" xmlns="http://www.w3.org/2000/svg" xmlns:xlink="http://www.w3.org/1999/xlink" x="0px" y="0px"
	 viewBox="0 0 60 60" style="enable-background:new 0 0 60 60;" xml:space="preserve">
<style type="text/css">
	.st0{clip-path:url(#SVGID_2_);fill:#FCE4EC;}
	.st1{clip-path:url(#SVGID_2_);}
	.st2{fill:#683C11;}
	.st3{fill:#F4E3D6;}
	.st4{fill:#F3D1BB;}
	.st5{fill:#F5F5F5;}
	.st6{fill:#EC407A;}
</style>
<g>
	<g>
		<defs>
			<circle id="SVGID_1_" cx="30.4" cy="29.8" r="25.5"/>
		</defs>
		<clipPath id="SVGID_2_">
			<use xlink:href="#SVGID_1_"  style="overflow:visible;"/>
		</clipPath>
		<circle class="st0" cx="30.4" cy="29.8" r="25.5"/>
		<g class="st1">
			<g>
				<g>
					<path class="st2" d="M45.2,44.9c0,0,0-0.1-0.1-0.1c-4.4-3.9-3.7-10.9-4-16.3c-0.2-4.1,0-9.9-3.3-13c0,0,0-0.1-0.1-0.1
						c-0.1-0.1-0.3-0.2-0.4-0.3c-0.1,0-0.1,0-0.1,0.1c0,0.1,0.1,0.1,0.1,0.2c-2.1-0.4-4.5-0.1-6.6-0.1c-2.7,0-5.3-0.1-8,0.1
						c-0.1,0-0.1,0.1-0.1,0.2c-2.8,3.7-2.5,9.2-3,13.5c-0.3,2.7-0.8,5.5-1.7,8.1c-0.8,2.5-2.1,4.6-3.6,6.8c0,0,0,0,0,0.1
						c0,0,0,0,0,0c-0.1,0-0.1,0.1-0.2,0.1c0,0,0,0,0,0.1c-0.9,1.4,1.6,3.7,2.6,4.4c2.8,2,6.2,2.8,9.6,2.9c3.8,0.1,7.6-0.6,11.2-1.6
						c1.6-0.4,3.3-0.8,4.7-1.5c1.3-0.7,2.1-1.9,2.8-3.1c0,0,0-0.1,0-0.1c0,0,0,0,0-0.1c0,0,0.1,0,0-0.1C45.4,45,45.3,44.9,45.2,44.9
						z"/>
					<path class="st3" d="M34.9,38.7c-1.1-1.5-1.7-3-1.6-4.9c0-0.4-0.3-0.6-0.7-0.5c0,0-0.1-0.1-0.1-0.1c-1.6-1-3.6-0.8-5.3-0.1
						c-0.1,0-0.2,0.2-0.3,0.3c-0.2,0-0.4,0.2-0.3,0.5c0.5,2.2-0.3,3.7-1.3,5.5c-0.5,1-2.1,0.9-1.7,2c0.7,2.5,4.7,4.9,7.2,4.8
						c2.4-0.1,5.6-3.2,6-5.8C36.9,39,35.6,39.8,34.9,38.7z"/>
					<path class="st4" d="M39.3,23.4c0.1-1.2,0.2-2.4,0-3.5c-0.7-5.7-8.3-5.1-12.5-5c-2.5,0-4,1.2-4.7,3.6c-0.5,1.6-0.6,3.4-0.6,5.1
						c-0.4-0.1-0.8,0.1-1.1,0.4c-0.4,0.5-0.5,1.2-0.4,1.8c0.1,0.6,0.3,1.2,0.9,1.6c0.3,0.2,0.7,0.2,1,0.2c0,0.1,0,0.2,0,0.3
						c0,0.1,0,0.1,0.1,0.1c0.3,1.6,0.9,3.2,1.9,4.5c2.6,3.6,7.5,4.6,10.9,1.6c1.8-1.6,2.9-3.8,3.5-6.1c0-0.2,0.1-0.4,0.1-0.6
						c0.1,0,0.1,0,0.2,0C40.5,27.4,40.9,23.9,39.3,23.4z"/>
					<path class="st2" d="M39.5,18.1C39,16.8,38,15.5,37,14.6c-2.3-2.2-5.8-2.7-8.9-2.3c-2.8,0.4-5.3,1.9-6.3,4.6
						c-0.6,1.7-0.6,3.6-0.5,5.4c0.1,1.8,0.2,3.6,0.5,5.4c0,0,0,0.1,0,0.1c0,0.1,0,0.1,0.1,0.1c0,0.1,0.2,0,0.2,0c0,0,0,0,0,0
						c0.5-1.9,1.9-2.8,3.7-3.4c1.7-0.6,3.4-1.1,5.1-1.6c1.7-0.5,4.1-1.1,4.8-2.9c0.1,0.7,0.6,1.3,1,1.8c0.7,0.8,1.8,1.2,2.6,1.8
						c0.1,0.1,0.2-0.1,0.2-0.2c0,0,0.1-0.1,0.1-0.1C39.7,21.5,40,19.7,39.5,18.1z"/>
				</g>
			</g>
			<g>
				<path class="st5" d="M37.5,42.6c-0.3-1.4-0.8-2.4-2-3.2c-0.1,0,0-0.2-0.1-0.1c-0.1,0-0.2,0-0.2,0.1c-0.1,5.3-9.6,5.9-10.2,0.6
					c-0.4-0.1-0.2,0.1-0.2,0.1c0-0.1,0.1-0.1,0-0.1c-0.1-0.1-0.4,0-0.5,0.2c-3.7,5.2,0.8,12.9,7.4,12.3c2.8-0.3,5.6-2.2,6.1-5.1
					C38.1,45.8,37.8,44.1,37.5,42.6z"/>
				<path class="st6" d="M47.5,58.1c0,0,0-0.1,0-0.2c-0.8-4.4-1.7-8.9-3.1-13.2c-0.5-1.6-1.4-2.2-2.9-3c-1.8-0.9-3.7-2-5.7-2.4
					c0,0-0.1,0-0.1,0c-0.1,0-0.4-0.2-0.4-0.1c-0.8,1.7-1.5,3.5-2.3,5.2c-0.8,1.7-1.8,3.4-3,4.9c-1-1.5-1.9-3-2.8-4.6
					c-0.8-1.5-1.3-3.4-2.4-4.8c0,0,0-0.1,0-0.1c0,0,0,0,0,0c0,0-0.1,0-0.1,0c0,0,0,0,0,0c-1.7,0.2-3.5,1.2-5.1,1.9
					c-1.5,0.6-2.7,0.8-3.2,2.4c-1.4,4-2.6,8.2-3.4,12.4c0,0.1,0.1,0.2,0.2,0.2c2.1,2.2,4.8,3,7.7,3.6c3.1,0.6,6.3,0.9,9.5,1
					c3.2,0.1,6.4-0.2,9.5-0.6c1.7-0.3,3.4-0.6,5-1c0.9-0.2,1.9-0.4,2.5-1.2C47.6,58.3,47.6,58.2,47.5,58.1z"/>
			</g>
		</g>
	</g>
</g>
</svg>
